E-tech Blog - Using Highcharter in an Interactive and Static Quarto Report
…
Format - A data frame with 3,876 observations and 3 variables.

year- year

state - name of the state

count - number of cases per 100,000 people. If the value is NA the count was 0

View vaccines dataset

library(highcharter)
vaccines

# A tibble: 3,876 × 3
    year state                count
   <int> <chr>                <dbl>
 1  1928 Alabama              335. 
 2  1928 Alaska                NA  
 3  1928 Arizona              201. 
 4  1928 Arkansas             482. 
 5  1928 California            69.2
 6  1928 Colorado             207. 
 7  1928 Connecticut          635. 
 8  1928 Delaware             256. 
 9  1928 District Of Columbia 536. 
10  1928 Florida              120. 
# ℹ 3,866 more rows
…
